Info: Performing initial LCAO calculation with      1 orbitals.
Info: Getting Hamiltonian matrix elements.
ETA: .......1......2.......3......4......5.......6......7.......8......9......0

Eigenvalues [H]
 #st  Spin   Eigenvalue      Occupation
   1   --    -0.233536       1.000000
Info: Ground-state restart information will be written to 'restart/gs'.
