CalculationMode = test
TestMode = regridding
RegriddingInterpolationLevel = regridding_nearest_neighbor

%Systems
  "A" | electronic
  "B" | electronic
%

%Coordinates
"C" | 0.0 | 0.0 |  0.0
%


A.Spacing = 0.3*angstrom
A.BoxShape = parallelepiped
%A.Lsize
  6.0*angstrom | 6.0*angstrom | 6.0*angstrom
%
A.ParStates = 1

B.Spacing = 3*A.Spacing
B.BoxShape = sphere
B.Radius  = 8.0*angstrom
