FromScratch=yes
CalculationMode = gs
PeriodicDimensions = 3
ExperimentalFeatures = yes
BoxShape = parallelepiped
%LatticeParameters
 1.0000000000E+00 | 1.0000000000E+00 | 1.0000000000E+00
%
%LatticeVectors
 -3.5000000000E+00 | 4.0000000000E+00 | 4.5000000000E+00
 3.5000000000E+00 | -4.0000000000E+00 | 4.5000000000E+00
 3.5000000000E+00 | 4.0000000000E+00 | -4.5000000000E+00
%
Spacing = 0.8
TheoryLevel = independent_particles
MaximumIter = 0
LCAOStart = lcao_none
FilterPotentials = filter_none
%KpointsGrid
 4 | 4 | 4
%
KPointsUseSymmetries = yes
%ReducedCoordinates
"H" | 2.6000000000E-01 | 2.8000000000E-01 | 3.2000000000E-01
"H" | 9.6000000000E-01 | 9.4000000000E-01 | 6.8000000000E-01
"H" | 4.6000000000E-01 | 7.8000000000E-01 | 2.0000000000E-02
"H" | 7.6000000000E-01 | 4.4000000000E-01 | 9.8000000000E-01
%
