# Energy [eV] =    9.27874E+00
# <x> [A] =   -8.66322E-02
# <y> [A] =    1.35464E-01
# <z> [A] =    3.03039E-01
           1           5           1   5.8758985145978070E-011
           2           5           1  -4.1862480222542540E-002
           3           5           1 -0.66212260015570956     
           4           5           1  0.74612311897436945     
           1           6           1   7.6966629877645021E-003
